From,To,Frequency
AMO Framework,Ability,5
AMO Framework,Motivation,1
AMO Framework,Opportunity,2
AMO Framework,Current HR and TM changes & challenges,1
AMO Framework,"Future HR and TM plans, changes & challenges",2
AMO Framework,"HR policies, practices & processes",3
AMO Framework,L&D and CD,2
AMO Framework,Performance management,1
AMO Framework,flexibility,1
AMO Framework,Talent management,1
AMO Framework,Talent management processes and practices,2
AMO Framework,institutional theory,1
AMO Framework,institutional pressures & logics,1
Ability,Motivation,9
Ability,Current HR and TM changes & challenges,14
Ability,"Future HR and TM plans, changes & challenges",12
Ability,"HR policies, practices & processes",2
Ability,"Disciplinary, grievance and ER (employee relations)",1
Ability,"Equality, diversity and inclusion",3
Ability,L&D and CD,16
Ability,Performance management,8
Ability,Recruitment & selection & retention,15
Ability,flexibility,4
Ability,reward and recognition,2
Ability,HRM system,2
Ability,Actors,1
Ability,HRIS,3
Ability,Strategy,8
Ability,Past,3
Ability,"Socioeconomic, demographic & cultural drivers",2
Ability,Talent management,1
Ability,Talent definition,1
Ability,Talent management processes and practices,5
Ability,talent management strategy,4
Ability,institutional theory,1
Ability,institutional pressures & logics,16
Ability,market pressures,1
Ability,organizational characteristics,12
Motivation,Current HR and TM changes & challenges,6
Motivation,"Future HR and TM plans, changes & challenges",2
Motivation,"HR policies, practices & processes",1
Motivation,"Equality, diversity and inclusion",1
Motivation,L&D and CD,10
Motivation,Performance management,2
Motivation,Recruitment & selection & retention,15
Motivation,reward and recognition,6
Motivation,Actors,1
Motivation,HRIS,1
Motivation,Strategy,2
Motivation,Past,1
Motivation,Personal experience,1
Motivation,"Socioeconomic, demographic & cultural drivers",2
Motivation,Talent definition,1
Motivation,Talent management processes and practices,1
Motivation,talent management strategy,1
Motivation,institutional pressures & logics,8
Motivation,market pressures,2
Motivation,organizational characteristics,5
Opportunity,Current HR and TM changes & challenges,1
Opportunity,"Future HR and TM plans, changes & challenges",1
Opportunity,"HR policies, practices & processes",2
Opportunity,L&D and CD,1
Opportunity,flexibility,1
Opportunity,"Socioeconomic, demographic & cultural drivers",1
Opportunity,Talent management,1
Opportunity,Talent management processes and practices,1
Opportunity,institutional pressures & logics,1
Opportunity,organizational characteristics,1
Current HR and TM changes & challenges,"Future HR and TM plans, changes & challenges",1
Current HR and TM changes & challenges,"HR policies, practices & processes",15
Current HR and TM changes & challenges,"Equality, diversity and inclusion",8
Current HR and TM changes & challenges,L&D and CD,37
Current HR and TM changes & challenges,Performance management,13
Current HR and TM changes & challenges,Recruitment & selection & retention,32
Current HR and TM changes & challenges,flexibility,5
Current HR and TM changes & challenges,reward and recognition,15
Current HR and TM changes & challenges,HRM system,18
Current HR and TM changes & challenges,Actors,1
Current HR and TM changes & challenges,HRIS,6
Current HR and TM changes & challenges,Strategy,17
Current HR and TM changes & challenges,Past,3
Current HR and TM changes & challenges,Personal experience,1
Current HR and TM changes & challenges,"Socioeconomic, demographic & cultural drivers",2
Current HR and TM changes & challenges,Talent management,4
Current HR and TM changes & challenges,Talent management processes and practices,12
Current HR and TM changes & challenges,talent management strategy,7
Current HR and TM changes & challenges,institutional theory,8
Current HR and TM changes & challenges,institutional pressures & logics,43
Current HR and TM changes & challenges,market pressures,5
Current HR and TM changes & challenges,organizational characteristics,28
"Future HR and TM plans, changes & challenges","HR policies, practices & processes",10
"Future HR and TM plans, changes & challenges","Equality, diversity and inclusion",6
"Future HR and TM plans, changes & challenges",L&D and CD,13
"Future HR and TM plans, changes & challenges",Performance management,1
"Future HR and TM plans, changes & challenges",Recruitment & selection & retention,9
"Future HR and TM plans, changes & challenges",flexibility,15
"Future HR and TM plans, changes & challenges",reward and recognition,6
"Future HR and TM plans, changes & challenges",HRM system,5
"Future HR and TM plans, changes & challenges",HRIS,3
"Future HR and TM plans, changes & challenges",Strategy,7
"Future HR and TM plans, changes & challenges","Socioeconomic, demographic & cultural drivers",7
"Future HR and TM plans, changes & challenges",Talent management,3
"Future HR and TM plans, changes & challenges",Talent management processes and practices,1
"Future HR and TM plans, changes & challenges",talent management strategy,4
"Future HR and TM plans, changes & challenges",institutional theory,2
"Future HR and TM plans, changes & challenges",institutional pressures & logics,7
"Future HR and TM plans, changes & challenges",market pressures,3
"Future HR and TM plans, changes & challenges",organizational characteristics,12
"HR policies, practices & processes","Disciplinary, grievance and ER (employee relations)",3
"HR policies, practices & processes","Equality, diversity and inclusion",8
"HR policies, practices & processes",L&D and CD,17
"HR policies, practices & processes",Performance management,10
"HR policies, practices & processes",Recruitment & selection & retention,11
"HR policies, practices & processes",flexibility,8
"HR policies, practices & processes",reward and recognition,12
"HR policies, practices & processes",HRM system,10
"HR policies, practices & processes",Actors,2
"HR policies, practices & processes",HRIS,3
"HR policies, practices & processes",Outcome,4
"HR policies, practices & processes",Strategy,4
"HR policies, practices & processes",Past,5
"HR policies, practices & processes","Socioeconomic, demographic & cultural drivers",2
"HR policies, practices & processes",Talent management,2
"HR policies, practices & processes",Talent definition,1
"HR policies, practices & processes",Talent management processes and practices,1
"HR policies, practices & processes",institutional theory,10
"HR policies, practices & processes",institutional pressures & logics,12
"HR policies, practices & processes",market pressures,3
"HR policies, practices & processes",organizational characteristics,4
"Disciplinary, grievance and ER (employee relations)","Equality, diversity and inclusion",2
"Disciplinary, grievance and ER (employee relations)",L&D and CD,4
"Disciplinary, grievance and ER (employee relations)",Recruitment & selection & retention,3
"Disciplinary, grievance and ER (employee relations)",reward and recognition,9
"Disciplinary, grievance and ER (employee relations)",Actors,3
"Disciplinary, grievance and ER (employee relations)",HRIS,1
"Disciplinary, grievance and ER (employee relations)",Outcome,1
"Disciplinary, grievance and ER (employee relations)",Strategy,1
"Disciplinary, grievance and ER (employee relations)",Talent management processes and practices,1
"Disciplinary, grievance and ER (employee relations)",talent management strategy,2
"Disciplinary, grievance and ER (employee relations)",institutional pressures & logics,16
"Disciplinary, grievance and ER (employee relations)",organizational characteristics,1
"Equality, diversity and inclusion",L&D and CD,5
"Equality, diversity and inclusion",Recruitment & selection & retention,11
"Equality, diversity and inclusion",flexibility,2
"Equality, diversity and inclusion",reward and recognition,2
"Equality, diversity and inclusion",HRM system,4
"Equality, diversity and inclusion",Actors,3
"Equality, diversity and inclusion",Strategy,4
"Equality, diversity and inclusion",Past,2
"Equality, diversity and inclusion","Socioeconomic, demographic & cultural drivers",1
"Equality, diversity and inclusion",Talent  communication,1
"Equality, diversity and inclusion",Talent management processes and practices,3
"Equality, diversity and inclusion",talent management strategy,5
"Equality, diversity and inclusion",institutional theory,2
"Equality, diversity and inclusion",institutional pressures & logics,10
"Equality, diversity and inclusion",organizational characteristics,2
L&D and CD,Performance management,10
L&D and CD,Recruitment & selection & retention,22
L&D and CD,flexibility,2
L&D and CD,reward and recognition,4
L&D and CD,HRM system,10
L&D and CD,Actors,3
L&D and CD,HRIS,5
L&D and CD,Outcome,4
L&D and CD,Strategy,12
L&D and CD,Past,8
L&D and CD,"Socioeconomic, demographic & cultural drivers",3
L&D and CD,Talent management,3
L&D and CD,Talent  communication,1
L&D and CD,Talent definition,2
L&D and CD,Talent management processes and practices,19
L&D and CD,talent management strategy,15
L&D and CD,institutional theory,1
L&D and CD,institutional pressures & logics,30
L&D and CD,market pressures,5
L&D and CD,organizational characteristics,11
Performance management,flexibility,2
Performance management,reward and recognition,7
Performance management,HRM system,2
Performance management,HRIS,7
Performance management,Strategy,3
Performance management,Past,3
Performance management,Personal experience,1
Performance management,Talent definition,2
Performance management,Talent management processes and practices,9
Performance management,institutional pressures & logics,7
Recruitment & selection & retention,flexibility,3
Recruitment & selection & retention,reward and recognition,15
Recruitment & selection & retention,HRM system,3
Recruitment & selection & retention,Outcome,6
Recruitment & selection & retention,Strategy,9
Recruitment & selection & retention,Past,8
Recruitment & selection & retention,Personal experience,2
Recruitment & selection & retention,"Socioeconomic, demographic & cultural drivers",4
Recruitment & selection & retention,Talent management processes and practices,4
Recruitment & selection & retention,institutional theory,2
Recruitment & selection & retention,institutional pressures & logics,40
Recruitment & selection & retention,market pressures,16
Recruitment & selection & retention,organizational characteristics,14
flexibility,reward and recognition,1
flexibility,HRM system,1
flexibility,HRIS,1
flexibility,Strategy,2
flexibility,"Socioeconomic, demographic & cultural drivers",1
flexibility,institutional pressures & logics,4
flexibility,organizational characteristics,6
reward and recognition,HRIS,1
reward and recognition,Outcome,1
reward and recognition,Strategy,1
reward and recognition,Past,4
reward and recognition,Personal experience,1
reward and recognition,"Socioeconomic, demographic & cultural drivers",3
reward and recognition,Talent management,1
reward and recognition,Talent definition,1
reward and recognition,Talent management processes and practices,3
reward and recognition,talent management strategy,1
reward and recognition,institutional theory,6
reward and recognition,institutional pressures & logics,43
reward and recognition,market pressures,5
reward and recognition,organizational characteristics,3
HRM system,Actors,4
HRM system,HRIS,5
HRM system,Outcome,9
HRM system,Strategy,20
HRM system,Past,7
HRM system,Talent management processes and practices,1
HRM system,institutional theory,4
HRM system,institutional pressures & logics,15
HRM system,market pressures,5
HRM system,organizational characteristics,3
Actors,Strategy,7
Actors,Past,2
Actors,institutional theory,1
Actors,institutional pressures & logics,6
HRIS,Past,5
HRIS,Talent management processes and practices,9
HRIS,institutional pressures & logics,2
HRIS,organizational characteristics,2
Outcome,Past,1
Outcome,Talent management processes and practices,1
Outcome,talent management strategy,1
Outcome,institutional theory,1
Outcome,institutional pressures & logics,1
Outcome,market pressures,1
Strategy,Past,8
Strategy,"Socioeconomic, demographic & cultural drivers",2
Strategy,Talent management,1
Strategy,Talent  communication,1
Strategy,Talent management processes and practices,1
Strategy,talent management strategy,4
Strategy,institutional theory,2
Strategy,institutional pressures & logics,28
Strategy,market pressures,2
Strategy,organizational characteristics,6
Past,"Socioeconomic, demographic & cultural drivers",3
Past,Talent management,2
Past,Talent definition,1
Past,Talent management processes and practices,4
Past,talent management strategy,1
Past,institutional theory,1
Past,institutional pressures & logics,9
Past,organizational characteristics,12
Personal experience,institutional pressures & logics,1
Personal experience,market pressures,1
Personal experience,organizational characteristics,1
"Socioeconomic, demographic & cultural drivers",Talent management,1
"Socioeconomic, demographic & cultural drivers",talent management strategy,1
"Socioeconomic, demographic & cultural drivers",institutional pressures & logics,8
"Socioeconomic, demographic & cultural drivers",market pressures,3
"Socioeconomic, demographic & cultural drivers",organizational characteristics,4
Talent management,Talent  communication,6
Talent management,Talent definition,3
Talent management,Talent management processes and practices,4
Talent management,talent management strategy,2
Talent management,institutional pressures & logics,2
Talent management,market pressures,1
Talent management,organizational characteristics,1
Talent  communication,Talent definition,2
Talent  communication,Talent management processes and practices,1
Talent  communication,talent management strategy,2
Talent  communication,institutional pressures & logics,1
Talent definition,Talent management processes and practices,3
Talent definition,talent management strategy,5
Talent definition,institutional pressures & logics,2
Talent definition,market pressures,1
Talent management processes and practices,talent management strategy,1
Talent management processes and practices,institutional pressures & logics,7
Talent management processes and practices,market pressures,2
talent management strategy,institutional pressures & logics,9
talent management strategy,market pressures,1
talent management strategy,organizational characteristics,4
institutional theory,institutional pressures & logics,30
institutional theory,market pressures,6
institutional theory,organizational characteristics,1
institutional pressures & logics,market pressures,7
institutional pressures & logics,organizational characteristics,23
market pressures,organizational characteristics,2
